<svg width="20" height="21" viewBox="0 0 20 21" fill="none" xmlns="http://www.w3.org/2000/svg">
<path d="M1 21V21C1 17.6863 3.68629 15 7 15H13C16.3137 15 19 17.6863 19 21V21" stroke="black" stroke-linecap="round"/>
<circle cx="10" cy="6" r="5" fill="white" stroke="black"/>
</svg>
