<svg width="16" height="14" viewBox="0 0 16 14" fill="none" xmlns="http://www.w3.org/2000/svg">
<line x1="0.75" y1="1.25" x2="15.25" y2="1.25" stroke="black" stroke-width="1.5" stroke-linecap="round"/>
<line x1="0.75" y1="7.25" x2="15.25" y2="7.25" stroke="black" stroke-width="1.5" stroke-linecap="round"/>
<line x1="0.75" y1="13.25" x2="8.25" y2="13.25" stroke="black" stroke-width="1.5" stroke-linecap="round"/>
</svg>
